OpenDungeons_Version:0.7.0  # The version of OpenDungeons which created this file (for compatibility reasons).

[Info]
Name	\[Test\] Small (2 vs 2)
Description	A small test map for the skirmish mode, left against right side...
Music	Searching_yd.ogg
FightMusic	TheDarkAmulet_MP.ogg
[/Info]

[Seats]
[Seat]
seatId	1
teamId	1/2
player	Human
faction	Keeper
startingX	10
startingY	10
colorId	1
gold	1000
goldMined	100
mana	500
[SkillDone]
roomTreasury
roomDormitory
roomHatchery
roomLibrary
trapDoorWooden
trapCannon
spellSummonWorker
spellCreatureHeal
spellCreatureExplosion
[/SkillDone]
[SkillNotAllowed]
trapSpike
[/SkillNotAllowed]
[SkillPending]
[/SkillPending]
[/Seat]
[Seat]
seatId	2
teamId	1/2
player	AI
faction	Choice
startingX	10
startingY	40
colorId	2
gold	1000
goldMined	100
mana	500
[SkillDone]
roomTreasury
roomDormitory
roomHatchery
roomLibrary
trapCannon
spellSummonWorker
[/SkillDone]
[SkillNotAllowed]
[/SkillNotAllowed]
[SkillPending]
spellCallToWar
spellCreatureHeal
spellCreatureExplosion
roomTrainingHall
roomWorkshop
spellCreatureHaste
roomCrypt
trapDoorWooden
trapSpike
[/SkillPending]
[/Seat]
[Seat]
seatId	3
teamId	3
player	Choice
faction	Choice
startingX	40
startingY	10
colorId	3
gold	1000
goldMined	100
mana	500
[SkillDone]
roomTreasury
roomDormitory
roomHatchery
roomLibrary
trapCannon
spellSummonWorker
[/SkillDone]
[SkillNotAllowed]
[/SkillNotAllowed]
[SkillPending]
[/SkillPending]
[/Seat]
[Seat]
seatId	4
teamId	3
player	Choice
faction	Choice
startingX	40
startingY	40
colorId	4
gold	1000
goldMined	100
mana	500
[SkillDone]
roomTreasury
roomDormitory
roomHatchery
roomLibrary
trapCannon
spellSummonWorker
[/SkillDone]
[SkillNotAllowed]
[/SkillNotAllowed]
[SkillPending]
[/SkillPending]
[/Seat]
[/Seats]

[Goals]
# goalName	arguments
KillAllEnemies	NULL
ClaimNTiles	40
+ 1
ClaimNTiles	60
MineNGold	20
+ 1
MineNGold	50
+ 1
MineNGold	100
ProtectDungeonTemple	NULL
[/Goals]

[Tiles]
# Map Size
50 # MapSizeX
50 # MapSizeY
# posX	posY	type	fullness	seatId(optional)
0	1	1	0
0	9	1	100	3
0	10	1	100	3
0	11	1	100	3
0	13	1	0	1
0	14	1	0	1
0	18	1	0	1
0	19	1	100	1
0	20	1	100	1
0	21	1	0	1
1	1	1	0
1	8	1	100	3
1	9	1	0	3
1	10	1	0	3
1	11	1	0	3
1	12	1	100	3
1	13	1	100	1
1	14	1	100	1
1	15	1	100	3
1	16	1	100	3
1	17	1	100	3
1	18	1	100	1
1	19	1	0	3
1	20	1	0	3
1	21	1	100	1
1	22	1	0	1
1	24	2	100
1	25	2	100
1	31	1	0	2
1	32	1	0	2
1	33	1	0	2
1	34	1	0	2
1	35	1	0	2
1	37	1	0	2
1	38	1	0	2
1	39	1	0	2
1	40	1	0	2
1	41	1	0	2
2	1	1	0
2	8	1	100	3
2	9	1	0	3
2	10	1	0	3
2	11	1	0	3
2	12	1	0	3
2	13	1	0	3
2	14	1	0	3
2	15	1	0	3
2	16	1	0	3
2	17	1	0	3
2	18	1	0	3
2	19	1	0	3
2	20	1	0	3
2	21	1	100	1
2	22	1	0	1
2	24	2	100
2	25	2	100
2	31	1	0	2
2	32	1	0	2
2	33	1	0	2
2	34	1	0	2
2	35	1	0	2
2	37	1	0	2
2	38	1	0	2
2	39	1	0	2
2	40	1	0	2
2	41	1	0	2
3	1	1	0
3	8	1	100	3
3	9	1	0	3
3	10	1	0	3
3	11	1	0	3
3	12	1	100	3
3	13	1	100	3
3	14	1	100	3
3	15	1	100	3
3	16	1	100	3
3	17	1	100	3
3	18	1	100	1
3	19	1	0	3
3	20	1	0	3
3	21	1	100	1
3	22	1	0	1
3	24	2	100
3	25	2	100
3	31	1	0	2
3	32	1	0	2
3	33	1	0	2
3	34	1	0	2
3	35	1	0	2
3	37	1	0	2
3	38	1	0	2
3	39	1	0	2
3	40	1	0	2
3	41	1	0	2
4	1	1	0
4	9	1	100	3
4	10	1	100	3
4	11	1	100	3
4	18	1	0	1
4	19	1	100	1
4	20	1	100	1
4	24	2	100
4	25	2	100
4	31	1	0	2
4	32	1	0	2
4	33	1	0	2
4	34	1	0	2
4	35	1	0	2
4	37	1	0	2
4	38	1	0	2
4	39	1	0	2
4	40	1	0	2
4	41	1	0	2
5	1	1	0
5	7	1	0
5	9	1	0
5	11	1	0
5	13	1	0
5	15	1	0
5	19	1	0	1
5	20	1	0	1
5	24	2	100
5	25	2	100
5	31	1	0	2
5	32	1	0	2
5	33	1	0	2
5	34	1	0	2
5	35	1	0	2
5	37	1	0	2
5	38	1	0	2
5	39	1	0	2
5	40	1	0	2
5	41	1	0	2
6	1	1	0
6	24	2	100
6	25	2	100
6	35	1	0
6	37	1	0
7	1	1	0
7	7	1	0	1
7	8	1	0	1
7	9	1	0	1
7	10	1	0	1
7	11	1	0	1
7	12	1	0	0
7	13	1	0	0
7	14	1	0	0
7	15	1	0
7	24	2	100
7	25	2	100
7	31	1	0	2
7	32	1	0	2
7	33	1	0	2
7	34	1	0	2
7	35	1	0	2
7	36	1	0
7	37	1	0	2
7	38	1	0	2
7	39	1	0	2
7	40	1	0	2
7	41	1	0	2
7	42	1	0	2
7	43	1	0	2
7	44	1	0	2
7	45	1	0
8	1	1	0
8	7	1	0	1
8	8	1	0	1
8	9	1	0	1
8	10	1	0	1
8	11	1	0	1
8	12	1	0	0
8	13	1	0	0
8	14	1	0	0
8	15	1	0
8	16	1	0	1
8	17	1	0	1
8	18	1	0	1
8	19	4	0
8	20	4	0
8	21	5	0
8	22	4	0
8	23	1	0	1
8	24	2	100
8	25	2	100
8	31	1	0	2
8	32	1	0	2
8	33	1	0	2
8	34	1	0	2
8	35	1	0	2
8	37	1	0	2
8	38	1	0	2
8	39	1	0	2
8	40	1	0	2
8	41	1	0	2
8	42	1	0	2
8	43	1	0	2
8	44	1	0	2
8	45	1	0
9	1	1	0
9	3	1	0	3
9	4	1	0
9	5	1	0
9	7	1	0	1
9	8	1	0	1
9	9	1	0	1
9	10	1	0	1
9	11	1	0	1
9	12	1	0	0
9	13	1	0	0
9	14	1	0	0
9	15	1	0
9	16	1	0	1
9	17	1	0	1
9	18	1	0	1
9	19	4	0
9	20	4	0
9	24	2	100
9	25	2	100
9	31	1	0	2
9	32	1	0	2
9	33	1	0	2
9	34	1	0	2
9	35	1	0	2
9	37	1	0	2
9	38	1	0	2
9	39	1	0	2
9	40	1	0	2
9	41	1	0	2
9	42	1	0	2
9	43	1	0	2
9	44	1	0	2
9	45	1	0
10	1	1	0
10	3	1	0
10	4	1	0
10	5	1	0
10	7	1	0	1
10	8	1	0	1
10	9	1	0	1
10	10	1	0	1
10	11	1	0	1
10	12	1	0	1
10	13	1	0	2
10	14	1	0	3
10	15	1	0
10	16	1	0	1
10	17	1	0	1
10	18	1	0	1
10	19	4	0
10	20	4	0
10	21	1	0
10	24	2	100
10	25	2	100
10	31	1	0	2
10	32	1	0	2
10	33	1	0	2
10	34	1	0	2
10	35	1	0	2
10	37	1	0	2
10	38	1	0	2
10	39	1	0	2
10	40	1	0	2
10	41	1	0	2
10	42	1	0
10	43	1	0
10	44	1	0
10	45	1	0
11	1	1	0
11	3	6	100
11	4	1	0
11	5	1	0
11	7	1	0	1
11	8	1	0	1
11	9	1	0	1
11	10	1	0	1
11	11	1	0	1
11	12	1	0
11	13	1	0
11	14	1	0
11	15	1	0
11	16	1	0
11	17	1	0
11	18	1	0	0
11	19	4	0	0
11	20	4	0
11	24	2	100
11	25	2	100
11	31	1	0	2
11	32	1	0	2
11	33	1	0	2
11	34	1	0	2
11	35	1	0	2
11	37	1	0	2
11	38	1	0	2
11	39	1	0	2
11	40	1	0	2
11	41	1	0	2
11	42	1	0
11	43	1	0
11	44	1	0
11	45	1	0
12	1	1	0
12	7	1	0	1
12	8	1	0	1
12	9	1	0	1
12	10	1	0
12	11	1	0
12	12	1	0
12	13	1	0
12	14	1	0
12	15	1	0
12	24	2	100
12	25	2	100
12	37	1	0	2
12	38	1	0	2
12	39	1	0	2
12	40	1	0
12	41	1	0
12	42	1	0
12	43	1	0
12	44	1	0
12	45	1	0
13	1	1	0
13	7	1	0
13	8	1	0
13	9	1	0
13	10	1	0	4
13	11	1	0
13	12	2	100
13	13	2	100
13	14	2	100
13	15	1	0
13	16	1	0	1
13	17	1	0	1
13	18	1	0	1
13	21	6	100
13	24	2	100
13	25	2	100
13	37	1	0
13	38	1	0
13	39	1	0
13	40	1	0
13	41	1	0
13	42	2	100
13	43	2	100
13	44	2	100
13	45	1	0
14	1	1	0	1
14	2	1	0	3
14	7	1	0
14	8	1	0
14	9	1	0
14	10	1	0	4
14	11	1	0
14	12	2	100
14	13	2	100
14	14	2	100
14	15	1	0
14	16	1	0	1
14	17	1	0	1
14	18	1	0	1
14	24	2	100
14	25	2	100
14	37	1	0
14	38	1	0
14	39	1	0
14	40	1	0
14	41	1	0
14	42	2	100
14	43	2	100
14	44	2	100
14	45	1	0
15	1	1	0
15	3	1	0
15	4	1	0	1
15	5	1	0
15	7	1	0
15	8	1	0
15	9	1	0
15	10	1	0
15	11	1	0
15	12	1	0
15	13	1	0
15	14	1	0
15	15	1	0
15	16	1	0	1
15	17	1	0	1
15	18	1	0	1
15	21	6	0
15	24	2	100
15	25	2	100
15	37	1	0
15	38	1	0
15	39	1	0
15	40	1	0
15	41	1	0
15	42	1	0
15	43	1	0
15	44	1	0
15	45	1	0
16	1	1	0
16	3	1	0	1
16	4	1	0	0
16	5	1	0	1
16	24	2	100
16	25	2	100
16	30	1	0	2
16	31	1	0	2
16	32	1	0	2
16	33	1	0	2
16	34	1	0	2
17	1	1	0
17	3	1	0
17	4	1	0	1
17	5	1	0
17	7	1	0	3
17	9	1	0	3
17	10	1	0	3
17	12	1	0	3
17	13	1	0	3
17	15	1	0	1
17	16	1	0	1
17	17	1	0	1
17	18	1	0	1
17	19	1	0	1
17	24	2	100
17	25	2	100
17	30	1	0	2
17	31	1	0	2
17	32	1	0	2
17	33	1	0	2
17	34	1	0	2
18	1	1	0
18	13	1	0
18	15	1	0	1
18	16	1	0	1
18	17	1	0	1
18	18	1	0	1
18	19	1	0	1
18	24	2	100
18	25	2	100
18	30	1	0	2
18	31	1	0	2
18	32	1	0	2
18	33	1	0	2
18	34	1	0	2
19	1	1	0
19	13	1	0
19	15	1	0	1
19	16	1	0	1
19	17	5	0
19	18	5	0
19	19	5	0
19	24	2	100
19	25	2	100
19	30	1	0	2
19	31	1	0	2
19	32	1	0	2
19	33	1	0	2
19	34	1	0	2
20	1	1	0
20	13	1	0
20	15	1	0	1
20	16	1	0	1
20	17	5	0
20	18	1	0	1
20	19	1	0	1
20	24	2	100
20	25	2	100
20	30	1	0	2
20	31	1	0	2
20	32	1	0	2
20	33	1	0	2
20	34	1	0	2
21	1	1	0
21	3	1	0	1
21	4	1	0	1
21	5	1	0	1
21	6	1	0	1
21	7	1	0	1
21	8	1	0	1
21	9	1	0	1
21	10	1	0	1
21	13	1	0
21	24	2	100
21	25	2	100
22	1	1	0
22	3	1	0	1
22	4	1	0	1
22	5	1	0	1
22	6	1	0	1
22	7	1	0	1
22	8	1	0	1
22	9	1	0	1
22	10	1	0	1
22	13	1	0	1
22	24	2	100
22	25	2	100
23	1	1	0
23	3	1	0	1
23	4	1	0	1
23	5	1	0	1
23	6	1	0	1
23	7	1	0	1
23	8	1	0	1
23	9	1	0	1
23	10	1	0	1
23	24	2	100
23	25	2	100
24	1	1	0
24	2	2	100
24	3	1	0	1
24	4	1	0	1
24	5	1	0	1
24	6	1	0	1
24	7	1	0	1
24	8	1	0	1
24	9	1	0	1
24	10	1	0	1
24	11	2	100
24	12	2	100
24	13	2	100
24	14	2	100
24	15	2	100
24	16	2	100
24	17	2	100
24	18	2	100
24	19	2	100
24	20	2	100
24	21	2	100
24	22	2	100
24	23	2	100
24	24	2	100
24	25	2	100
24	26	2	100
24	27	2	100
24	28	2	100
24	29	2	100
24	30	2	100
24	31	2	100
24	32	2	100
24	33	2	100
24	34	2	100
24	35	2	100
24	36	2	100
24	37	2	100
24	38	2	100
24	39	2	100
24	40	2	100
24	41	2	100
24	42	2	100
24	43	2	100
24	44	2	100
24	45	2	100
24	46	2	100
24	47	2	100
24	48	2	100
24	49	2	100
25	1	1	0
25	2	2	100
25	3	1	0	1
25	4	1	0	1
25	5	1	0	1
25	6	1	0	1
25	7	1	0	1
25	8	1	0	1
25	9	1	0	1
25	10	1	0	1
25	11	2	100
25	12	2	100
25	13	2	100
25	14	2	100
25	15	2	100
25	16	2	100
25	17	2	100
25	18	2	100
25	19	2	100
25	20	2	100
25	21	2	100
25	22	2	100
25	23	2	100
25	24	2	100
25	25	2	100
25	26	2	100
25	27	2	100
25	28	2	100
25	29	2	100
25	30	2	100
25	31	2	100
25	32	2	100
25	33	2	100
25	34	2	100
25	35	2	100
25	36	2	100
25	37	2	100
25	38	2	100
25	39	2	100
25	40	2	100
25	41	2	100
25	42	2	100
25	43	2	100
25	44	2	100
25	45	2	100
25	46	2	100
25	47	2	100
25	48	2	100
25	49	2	100
26	1	1	0
26	3	1	0	1
26	4	1	0	1
26	5	1	0	1
26	6	1	0	1
26	7	1	0	1
26	8	1	0	1
26	9	1	0	1
26	10	1	0	1
26	24	2	100
26	25	2	100
27	1	1	0
27	21	1	0	1
27	24	2	100
27	25	2	100
28	1	1	0
28	21	1	0	1
28	24	2	100
28	25	2	100
29	1	1	0
29	21	1	0	1
29	24	2	100
29	25	2	100
30	1	1	0
30	21	1	0	1
30	24	2	100
30	25	2	100
31	1	1	0
31	21	1	0	1
31	24	2	100
31	25	2	100
32	1	1	0
32	21	1	0	1
32	24	2	100
32	25	2	100
33	1	1	0
33	21	1	0	1
33	24	2	100
33	25	2	100
34	1	1	0
34	21	1	0	1
34	24	2	100
34	25	2	100
35	1	1	0
35	21	1	0	1
35	24	2	100
35	25	2	100
36	1	1	0
36	21	1	0	1
36	24	2	100
36	25	2	100
37	1	1	0
37	7	1	0	3
37	8	1	0	3
37	9	1	0	3
37	10	1	0	3
37	11	1	0	3
37	12	1	0	3
37	13	1	0	3
37	14	1	0	3
37	15	1	0
37	21	1	0	1
37	24	2	100
37	25	2	100
37	37	1	0	4
37	38	1	0	4
37	39	1	0	4
37	40	1	0	4
37	41	1	0	4
37	42	1	0	4
37	43	1	0	4
37	44	1	0	4
37	45	1	0
38	1	1	0
38	7	1	0	3
38	8	1	0	3
38	9	1	0	3
38	10	1	0	3
38	11	1	0	3
38	12	1	0	3
38	13	1	0	3
38	14	1	0	3
38	15	1	0
38	21	1	0	1
38	24	2	100
38	25	2	100
38	37	1	0	4
38	38	1	0	4
38	39	1	0	4
38	40	1	0	4
38	41	1	0	4
38	42	1	0	4
38	43	1	0	4
38	44	1	0	4
38	45	1	0
39	1	1	0
39	7	1	0	3
39	8	1	0	3
39	9	1	0	3
39	10	1	0	3
39	11	1	0	3
39	12	1	0	3
39	13	1	0	3
39	14	1	0	3
39	15	1	0
39	21	1	0	1
39	24	2	100
39	25	2	100
39	37	1	0	4
39	38	1	0	4
39	39	1	0	4
39	40	1	0	4
39	41	1	0	4
39	42	1	0	4
39	43	1	0	4
39	44	1	0	4
39	45	1	0
40	1	1	0
40	7	1	0	3
40	8	1	0	3
40	9	1	0	3
40	10	1	0	3
40	11	1	0	3
40	12	1	0
40	13	1	0
40	14	1	0
40	15	1	0
40	21	1	0	1
40	24	2	100
40	25	2	100
40	37	1	0	4
40	38	1	0	4
40	39	1	0	4
40	40	1	0	4
40	41	1	0	4
40	42	1	0
40	43	1	0
40	44	1	0
40	45	1	0
41	1	1	0
41	7	1	0	3
41	8	1	0	3
41	9	1	0	3
41	10	1	0	3
41	11	1	0	3
41	12	1	0
41	13	1	0
41	14	1	0
41	15	1	0
41	21	1	0	1
41	24	2	100
41	25	2	100
41	37	1	0	4
41	38	1	0	4
41	39	1	0	4
41	40	1	0	4
41	41	1	0	4
41	42	1	0
41	43	1	0
41	44	1	0
41	45	1	0
42	1	1	0
42	7	1	0	3
42	8	1	0	3
42	9	1	0	3
42	10	1	0
42	11	1	0
42	12	1	0
42	13	1	0
42	14	1	0
42	15	1	0
42	21	1	0	1
42	24	2	100
42	25	2	100
42	37	1	0	4
42	38	1	0	4
42	39	1	0	4
42	40	1	0
42	41	1	0
42	42	1	0
42	43	1	0
42	44	1	0
42	45	1	0
43	1	1	0
43	7	1	0
43	8	1	0
43	9	1	0
43	10	1	0	1
43	11	1	0
43	12	2	100
43	13	2	100
43	14	2	100
43	15	1	0
43	21	1	0	1
43	24	2	100
43	25	2	100
43	37	1	0
43	38	1	0
43	39	1	0
43	40	1	0
43	41	1	0
43	42	2	100
43	43	2	100
43	44	2	100
43	45	1	0
44	1	1	0
44	7	1	0
44	8	1	0
44	9	1	0
44	10	1	0	1
44	11	1	0
44	12	2	100
44	13	2	100
44	14	2	100
44	15	1	0
44	21	1	0	1
44	24	2	100
44	25	2	100
44	37	1	0
44	38	1	0
44	39	1	0
44	40	1	0
44	41	1	0
44	42	2	100
44	43	2	100
44	44	2	100
44	45	1	0
45	1	1	0
45	7	1	0
45	8	1	0
45	9	1	0
45	10	1	0
45	11	1	0
45	12	1	0
45	13	1	0
45	14	1	0
45	15	1	0
45	21	1	0	1
45	24	2	100
45	25	2	100
45	37	1	0
45	38	1	0
45	39	1	0
45	40	1	0
45	41	1	0
45	42	1	0
45	43	1	0
45	44	1	0
45	45	1	0
46	1	1	0
46	21	1	0	1
46	24	2	100
46	25	2	100
47	1	1	0
47	21	1	0	1
47	24	2	100
47	25	2	100
48	1	1	0
48	21	1	0	1
48	24	2	100
48	25	2	100
49	1	1	0
49	24	2	100
49	25	2	100
[/Tiles]

[Rooms]
# typeRoom	name	seatId	numTiles		Subsequent Lines: tileX	tileY
[Room]
4	Portal2	0	9
7	12
7	13
7	14
8	12
8	13
8	14
9	12
9	13
9	14
9	5
[/Room]
[Room]
10	PortalWave3	0	1
16	4
10	50	0	3	-
[Waves]
[Wave]
SpawnTurnMin	0
SpawnTurnMax	-1
[Creatures]
Wyvern	10
Wyvern	1
DwarfWorker	1
[/Creatures]
[/Wave]
[/Waves]
[/Room]
[Room]
12	WoodenBridge_1	0	1
11	19
1
[/Room]
[Room]
1	DungeonTemple1	1	25
7	7
7	8
7	9
7	10
7	11
8	7
8	8
8	9
8	10
8	11
9	7
9	8
9	9
9	10
9	11
10	7
10	8
10	9
10	10
10	11
11	7
11	8
11	9
11	10
11	11
[/Room]
[Room]
3	Treasury3	1	3
12	7
12	8
12	9
[/Room]
[Room]
11	PrisonGround1	1	9
8	16
8	17
8	18
9	16
9	17
9	18
10	16
10	17
10	18
[/Room]
[Room]
1	DungeonTemple4	2	25
7	37
7	38
7	39
7	40
7	41
8	37
8	38
8	39
8	40
8	41
9	37
9	38
9	39
9	40
9	41
10	37
10	38
10	39
10	40
10	41
11	37
11	38
11	39
11	40
11	41
[/Room]
[Room]
2	Dormitory3	2	25
1	37
1	38
1	39
1	40
1	41
2	37
2	38
2	39
2	40
2	41
3	37
3	38
3	39
3	40
3	41
4	37
4	38
4	39
4	40
4	41
5	37
5	38
5	39
5	40
5	41
0
[/Room]
[Room]
3	Treasury6	2	3
12	37
12	38
12	39
[/Room]
[Room]
4	Portal5	2	9
7	42
7	43
7	44
8	42
8	43
8	44
9	42
9	43
9	44
9	5
[/Room]
[Room]
6	Dojo1	2	25
16	30
16	31
16	32
16	33
16	34
17	30
17	31
17	32
17	33
17	34
18	30
18	31
18	32
18	33
18	34
19	30
19	31
19	32
19	33
19	34
20	30
20	31
20	32
20	33
20	34
[/Room]
[Room]
7	Library4	2	25
1	31
1	32
1	33
1	34
1	35
2	31
2	32
2	33
2	34
2	35
3	31
3	32
3	33
3	34
3	35
4	31
4	32
4	33
4	34
4	35
5	31
5	32
5	33
5	34
5	35
0
[/Room]
[Room]
8	Farm2	2	25
7	31
7	32
7	33
7	34
7	35
8	31
8	32
8	33
8	34
8	35
9	31
9	32
9	33
9	34
9	35
10	31
10	32
10	33
10	34
10	35
11	31
11	32
11	33
11	34
11	35
[/Room]
[Room]
1	DungeonTemple8	3	25
37	7
37	8
37	9
37	10
37	11
38	7
38	8
38	9
38	10
38	11
39	7
39	8
39	9
39	10
39	11
40	7
40	8
40	9
40	10
40	11
41	7
41	8
41	9
41	10
41	11
[/Room]
[Room]
3	Treasury10	3	3
42	7
42	8
42	9
[/Room]
[Room]
4	Portal9	3	9
37	12
37	13
37	14
38	12
38	13
38	14
39	12
39	13
39	14
9	5
[/Room]
[Room]
9	Crypt7	3	9
1	9
1	10
1	11
2	9
2	10
2	11
3	9
3	10
3	11
0
[/Room]
[Room]
1	DungeonTemple11	4	25
37	37
37	38
37	39
37	40
37	41
38	37
38	38
38	39
38	40
38	41
39	37
39	38
39	39
39	40
39	41
40	37
40	38
40	39
40	40
40	41
41	37
41	38
41	39
41	40
41	41
[/Room]
[Room]
4	Portal12	4	9
37	42
37	43
37	44
38	42
38	43
38	44
39	42
39	43
39	44
9	5
[/Room]
[/Rooms]

[Traps]
# typeTrap	name	seatId	numTiles		Subsequent Lines: tileX	tileY	isActivated(0/1)		Subsequent Lines: optional specific data
[Trap]
1	Cannon_2	3	2
17	12	1
17	13	1
[/Trap]
[Trap]
1	Cannon_5	3	1
9	3	1
[/Trap]
[Trap]
2	Spike_1	3	2
17	9	1
17	10	0
[/Trap]
[Trap]
3	Boulder_3	3	1
17	7	1
[/Trap]
[Trap]
3	Boulder_4	3	1
14	2	1
[/Trap]
[/Traps]

[Lights]
# posX	posY	posZ	diffuseR	diffuseG	diffuseB	specularR	specularG	specularB	attenRange	attenConst	attenLin	attenQuad
12	7	3.75	0.9	0.8	0.7	0.2	0.2	0.2	8	1	0	0.2
[/Lights]

[CreatureDefinitions]
[Creature]
    Name	Adventurer
    [Stats]
    WeaponSpawnL	RustyShield
    [/Stats]
[/Creature]
[Creature]
    Name	Wizard
    [Stats]
    WeaponSpawnL	RustyShield
    [/Stats]
[/Creature]
[Creature]
    Name	BigDragon
    [Stats]
    CreatureJob	Fighter
    MeshName	Dragon.mesh
    MeshScaleX	0.8
    MeshScaleY	0.8
    MeshScaleZ	0.8
    BedMeshName	DragonBed
    BedDim	1	1
    BedPos	1	1	0	-1
    MinHP	50
    HP/Level	10
    Heal/Turn	0.5
    WakefulnessLost/Turn	0.15
    HungerGrowth/Turn	0.15
    TileSightRadius	15
    MaxGoldCarryable	0
    DigRate	0
    DigRate/Level	0
    ClaimRate	0
    ClaimRate/Level	0
    GroundMoveSpeed	2.5
    WaterMoveSpeed	0.5
    LavaMoveSpeed	0.5
    GroundSpeed/Level	0.005
    WaterSpeed/Level	0.005
    LavaSpeed/Level	0.005
    PhysicalDefense	1
    PhysicalDef/Level	0.1
    MagicalDefense	0
    MagicalDef/Level	0
    ElementDefense	1.5
    ElementDef/Level	0.1
    FightIdleDist	1
    FeeBase	0
    FeePerLevel	0
    SleepHeal	1
    TurnsStunDropped	0
    WeaponSpawnL	none
    WeaponSpawnL	none
    SoundFamilyPickup	Default/Pickup
    SoundFamilyDrop	Default/Drop
    SoundFamilyAttack	Default/Attack
    SoundFamilyDie	Default/Die
    SoundFamilySlap	Default/Slap
    [/Stats]
    [RoomAffinity]
    [/RoomAffinity]
    [XP]
    # 2-10
    6	12	20	29	39	50	62	76	90
    # 11-20
    106	123	140	159	179	200	246	271	323	351
    # 21-30
    379	409	440	473	506	540	576	613	650	700
    [/XP]
    [MoodModifiers]
    # MoodModifierName	StartHunger	MoodModifier
    Hunger	80	-60
    # MoodModifierName	StartWakefulness	MoodModifier
    Wakefulness	20	-160
    # MoodModifierName	MoodModifier
    Fee	-120
    # MoodModifierName	MoodModifier
    HpLoss	-6
    # MoodModifierName	TurnsWithoutFightMin	TurnsWithoutFightMax	MoodModifier
    TurnsWithoutFight	150	20	-35
    # MoodModifierName	CreatureClass	MoodModifier
    Creature	Goblin	-500
    [/MoodModifiers]
    [CreatureSkills]
    # SkillName	CooldownNbTurns	WarmupNbTurns	LevelMin	EffectDuration	EffectValue
    StrengthSelf	21	3	1	5	1.3
    # SkillName	CooldownNbTurns	WarmupNbTurns	RangeMax	LevelMin	EffectDuration	EffectValue
    Weak	14	2	10	1	3	0.6
    # SkillName	CooldownNbTurns	WarmupNbTurns	RangeMax	LevelMin	EffectDuration	EffectValue
    Slow	12	2	10	1	6	0.6
    # SkillName	CooldownNbTurns	WarmupNbTurns	LevelMin	EffectDuration	EffectValue
    HealSelf	30	5	1	5	1
    # SkillName	CooldownNbTurns	WarmupNbTurns	LevelMin	EffectDuration	PhyDef	MagDef	EleDef
    DefenseSelf	35	1	1	25	2	1	0
    # SkillName	CooldownNbTurns	WarmupNbTurns	RangeMax	LevelMin	EffectDuration	EffectValue
    Explosion	40	6	10	1	3	5
    # SkillName	CooldownNbTurns	WarmupNbTurns	RangeMax	RangePerLvl	LevelMin	MissileMesh	MissilePartScript	MissileSpeed	PhyAtk	PhyAtkPerLvl	MagAtk	MagAtkPerLvl	EleAtk	EleAtkPerLvl
    MissileLaunch	10	2	6	0	1	Cannonball	MissileMagic	3	2	0.5	2	0.5	1	0.5
    # SkillName	CooldownNbTurns	WarmupNbTurns	LevelMin	PhyAtk	PhyAtkPerLvl	MagAtk	MagAtkPerLvl	EleAtk	EleAtkPerLvl
    Melee	5	1	1	12	0.2	0	0	0	0
    # SkillName	CooldownNbTurns	WarmupNbTurns	LevelMin	EffectDuration	EffectValue
    HasteSelf	30	2	1	10	1.5
    [/CreatureSkills]
    [CreatureBehaviours]
    # BehaviourName	WeakCoef
    FleeWhenWeak	0.3
    # BehaviourName
    AttackEnemy
    # BehaviourName
    LeaveDungeonWhenFurious
    [/CreatureBehaviours]
[/Creature]
[/CreatureDefinitions]

[EquipmentDefinitions]
[Equipment]
    Name	Longsword
    [Stats]
    PhysicalDamage	15
    [/Stats]
[/Equipment]
[Equipment]
    Name	SpecialStaff
    [Stats]
    MeshName	Staff.mesh
    PhysicalDamage	12
    MagicalDamage	0
    ElementDamage	0
    PhysicalDefense	1
    MagicalDefense	0
    ElementDefense	0
    [/Stats]
[/Equipment]
[/EquipmentDefinitions]

[Creatures]
# SeatId	Name	MeshName	PosX	PosY	PosZ	ClassName	Level	CurrentXP	CurrentHP	CurrentWakefulness	CurrentHunger	GoldToDeposit	LeftWeapon	RightWeapon	CarriedSkill	CarriedWeapon	NbCreatureEffects	N*CreatureEffects
1	DefaultWorker1	Kobold.mesh	11	11	0	DefaultWorker	1	0	max	100	0	0	none	none	nullSkillType	none	0
2	DefaultWorker2	Kobold.mesh	12	39	0	DefaultWorker	1	0	max	100	0	0	none	none	nullSkillType	none	0
1	NatureMonster1	NatureMonster	7	7	0	NatureMonster	1	0	10	100	0	0	Longsword	none	nullSkillType	none	0
1	BigDragon1	BigDragon	7	9	0	BigDragon	1	0	10	100	0	0	none	none	nullSkillType	none	0
1	Adventurer2	Adventurer	7	8	0	Adventurer	1	0	10	100	0	0	none	SpecialStaff	nullSkillType	none	0
2	Adventurer3	Adventurer	7	40	0	Adventurer	1	0	10	100	0	0	none	none	nullSkillType	none	0
3	TentacleAlbine1	TentacleAlbine	5	15	0	TentacleAlbine	1	0	max	100	0	0	none	none	nullSkillType	none	0
3	TentacleAlbine2	TentacleAlbine	5	11	0	TentacleAlbine	10	0	10	100	0	0	none	none	nullSkillType	none	0
3	TentacleAlbine3	TentacleAlbine	5	13	0	TentacleAlbine	25	0	10	100	0	0	none	none	nullSkillType	none	0
3	TentacleAlbine4	TentacleAlbine	5	9	0	TentacleAlbine	1	0	max	100	0	0	none	none	nullSkillType	none	0
3	TentacleAlbine5	TentacleAlbine	5	7	0	TentacleAlbine	1	0	max	100	0	0	none	none	nullSkillType	none	0
3	Kobold2	Kobold	1	19	0	Kobold	1	0	max	100	0	0	none	none	nullSkillType	none	0
3	Orc3	Orc	3	20	0	Orc	1	0	0	100	0	0	none	none	nullSkillType	none	0
0	Wyvern1	Wyvern	15	18	0	Wyvern	1	0	max	100	0	0	none	none	roomTrainingHall	none	0
2	DefaultWorker3	Kobold.mesh	12	9	0	DefaultWorker	1	0	max	100	0	0	none	none	nullSkillType	none	0
0	Wyvern2	Wyvern.mesh	18	32	0	Wyvern	1	0	max	100	0	0	none	none	nullSkillType	none	1	Explosion	100	SpellCreatureExplosion	0.01
1	TentacleAlbine6	TentacleAlbine	11	5	0	TentacleAlbine	1	0	max	100	0	0	none	none	nullSkillType	none	0
0	Wizard1	Wizard.mesh	20	19	0	Wizard	1	0	max	100	0	0	RustyShield	none	nullSkillType	none	0
2	Wyvern3	Wyvern.mesh	7	37	0	Wyvern	1	0	max	100	0	0	none	none	nullSkillType	none	0
0	Troll1	Troll.mesh	48	21	0	Troll	1	0	max	100	0	0	none	none	nullSkillType	none	0
1	Wizard2	Wizard.mesh	12	8	0	Wizard	1	0	max	100	0	0	RustyShield	none	nullSkillType	none	0
0	Troll2	Troll.mesh	26	5	0	Troll	1	0	max	100	0	0	none	none	nullSkillType	none	0
1	Skeleton1	skeleton.mesh	12	9	0	Skeleton	1	0	max	100	0	0	none	none	nullSkillType	none	0
1	Lich1	lich.mesh	13	10	0	Lich	1	0	max	100	0	0	none	none	nullSkillType	none	0
0	NatureMonster2	Knight.mesh	22	6	0	NatureMonster	1	0	max	100	0	0	RustyShield	RustySword	nullSkillType	none	0
[/Creatures]

[Spells]
# typeSpell	SeatId	Name	MeshName	PosX	PosY	PosZ	opacity	rotationAngle	optionalData
[/Spells]

[CraftedTraps]
# SeatId	Name	MeshName	PosX	PosY	PosZ	opacity	rotationAngle	trapType	PosX	PosY	PosZ
[/CraftedTraps]

[SkillEntity]
# SeatId	Name	MeshName	PosX	PosY	PosZ	opacity	rotationAngle	skillPoints	PosX	PosY	PosZ
[/SkillEntity]

[GiftBoxEntity]
# GiftBoxType	SeatId	Name	MeshName	PosX	PosY	PosZ	opacity	rotationAngle	optionalData
[/GiftBoxEntity]

[Missiles]
# missileType	SeatId	Name	MeshName	PosX	PosY	PosZ	opacity	rotationAngle	directionX	directionY	directionZ	missileAlive	damageAllies	speed	optionalData
[/Missiles]

[TreasuryObject]
# SeatId	Name	MeshName	PosX	PosY	PosZ	opacity	rotationAngle	value
[/TreasuryObject]

[Chickens]
# SeatId	Name	MeshName	PosX	PosY	PosZ	opacity	rotationAngle	PosX	PosY	PosZ
[/Chickens]
